[Starts]

[Day_04/02/2017]
D04022017-010400000
V,HighEnl=300,AsViolate=True,MinFinAlt=0m,MaxFinAlt=10000m,MaxStartAlt=0m,MaxAlt=0m,MaxAltCorr=50.0m,AltTimeout=0,StartGsp=0km/h,FixRate=10,ValFailed=True
C301299000000301299000003
C4223150N00151500ELa Cerdanya - LECD
C4223150N00151500ELa Cerdanya - LECD
C4234110N00044360WSanta Cilia - LECI
C4206290N00028590EBenabarre
C4203020N00117320EOliana
C4223150N00151500ELa Cerdanya - LECD
C4223150N00151500ELa Cerdanya - LECD
TSK,WpDis=True,MinDis=True,NearDis=0.5km,NearAlt=200.0m,MinFinAlt=0.0km
XTest day
E000,0,,,0,0,-1,-1,-1,-1,0,0,-1,-1,0,0,-1,-1,0,0,"",-1,-1,"",-1,,,,,,
E001,0,,,0,0,-1,-1,-1,-1,0,0,-1,-1,0,0,-1,-1,0,0,"",-1,-1,"",-1,,,,,,
E002,0,,,0,0,-1,-1,-1,-1,0,0,-1,-1,0,0,-1,-1,0,0,"",-1,-1,"",-1,,,,,,
E003,0,,,0,0,-1,-1,-1,-1,0,0,-1,-1,0,0,-1,-1,0,0,"",-1,-1,"",-1,,,,,,
E004,0,,,0,0,-1,-1,-1,-1,0,0,-1,-1,0,0,-1,-1,0,0,"",-1,-1,"",-1,,,,,,
E005,0,,,0,0,-1,-1,-1,-1,0,0,-1,-1,0,0,-1,-1,0,0,"",-1,-1,"",-1,,,,,,
E006,0,,,0,0,-1,-1,-1,-1,0,0,-1,-1,0,0,-1,-1,0,0,"",-1,-1,"",-1,,,,,,
E007,0,,,0,0,-1,-1,-1,-1,0,0,-1,-1,0,0,-1,-1,0,0,"",-1,-1,"",-1,,,,,,
E008,0,,,0,0,-1,-1,-1,-1,0,0,-1,-1,0,0,-1,-1,0,0,"",-1,-1,"",-1,,,,,,
E009,0,,,0,0,-1,-1,-1,-1,0,0,-1,-1,0,0,-1,-1,0,0,"",-1,-1,"",-1,,,,,,
E010,0,,,0,0,-1,-1,-1,-1,0,0,-1,-1,0,0,-1,-1,0,0,"",-1,-1,"",-1,,,,,,


